C:\Users\kuanysh\IdeaProjects\tests\src\main\java\task1\FileSort.java
C:\Users\kuanysh\IdeaProjects\tests\src\main\java\core\WebElementHelper.java
C:\Users\kuanysh\IdeaProjects\tests\src\main\java\task2\YandexHomePage.java
C:\Users\kuanysh\IdeaProjects\tests\src\main\java\core\DriverSetup.java
C:\Users\kuanysh\IdeaProjects\tests\src\main\java\task3\AlphaBankPageObjects.java
C:\Users\kuanysh\IdeaProjects\tests\src\main\java\core\DriverType.java
C:\Users\kuanysh\IdeaProjects\tests\src\main\java\pageobjects\Page.java
C:\Users\kuanysh\IdeaProjects\tests\src\main\java\task2\MarketHomePage.java
C:\Users\kuanysh\IdeaProjects\tests\src\main\java\constants\Constants.java
C:\Users\kuanysh\IdeaProjects\tests\src\main\java\task2\ElectronicsSubcategoryPage.java
C:\Users\kuanysh\IdeaProjects\tests\src\main\java\task2\ProductPage.java
C:\Users\kuanysh\IdeaProjects\tests\src\main\java\listeners\AllureScreenShooter.java
C:\Users\kuanysh\IdeaProjects\tests\src\main\java\core\DriverFactory.java
C:\Users\kuanysh\IdeaProjects\tests\src\main\java\task3\GooglePageObjects.java
C:\Users\kuanysh\IdeaProjects\tests\src\main\java\task2\ElectronicsPage.java
C:\Users\kuanysh\IdeaProjects\tests\src\main\java\core\DriverBase.java
